7 – Lösungen – Statistische Datenanalyse mit R
…
nrow(mtcars1)  # 6 Zeilen

[1] 6

Exercise 4

library(nycflights13)
library(tibble)

flights |>
    subset(day == 1 & month == 1) |>  # 842 Zeilen
    subset(select=c(year:dep_time, arr_time, tailnum))

# A tibble: 842 × 6
    year month   day dep_time arr_time tailnum
   <int> <int> <int>    <int>    <int> <chr>  
 1  2013     1     1      517      830 N14228 
 2  2013     1     1      533      850 N24211 
 3  2013     1     1      542      923 N619AA 
 4  2013     1     1      544     1004 N804JB 
 5  2013     1     1      554      812 N668DN 
 6  2013     1     1      554      740 N39463 
 7  2013     1     1      555      913 N516JB 
 8  2013     1     1      557      709 N829AS 
 9  2013     1     1      557      838 N593JB 
10  2013     1     1      558      753 N3ALAA 
# ℹ 832 more rows

flights |>
    transform(hours=air_time / 60) |>
    transform(km=distance * 1.60934) |>
    transform(speed=km / hours) |>
    subset(select=c(month, day, carrier, tailnum, speed)) |>
    as_tibble()

# A tibble: 336,776 × 5
   month   day carrier tailnum speed
   <int> <int> <chr>   <chr>   <dbl>
 1     1     1 UA      N14228   596.
 2     1     1 UA      N24211   602.
 3     1     1 AA      N619AA   657.
 4     1     1 B6      N804JB   832.
 5     1     1 DL      N668DN   634.
 6     1     1 UA      N39463   463.
 7     1     1 B6      N516JB   651.
 8     1     1 EV      N829AS   417.
 9     1     1 B6      N593JB   651.
10     1     1 AA      N3ALAA   513.
# ℹ 336,766 more rows

flights |>
    subset(dep_time < 600)  # 8730 Zeilen

# A tibble: 8,730 × 19
    year month   day dep_time sched_dep_time dep_delay arr_time sched_arr_time arr_delay carrier flight tailnum origin
   <int> <int> <int>    <int>          <int>     <dbl>    <int>          <int>     <dbl> <chr>    <int> <chr>   <chr> 
 1  2013     1     1      517            515         2      830            819        11 UA        1545 N14228  EWR   
 2  2013     1     1      533            529         4      850            830        20 UA        1714 N24211  LGA   
 3  2013     1     1      542            540         2      923            850        33 AA        1141 N619AA  JFK   
 4  2013     1     1      544            545        -1     1004           1022       -18 B6         725 N804JB  JFK   
 5  2013     1     1      554            600        -6      812            837       -25 DL         461 N668DN  LGA   
 6  2013     1     1      554            558        -4      740            728        12 UA        1696 N39463  EWR   
 7  2013     1     1      555            600        -5      913            854        19 B6         507 N516JB  EWR   
 8  2013     1     1      557            600        -3      709            723       -14 EV        5708 N829AS  LGA   
 9  2013     1     1      557            600        -3      838            846        -8 B6          79 N593JB  JFK   
10  2013     1     1      558            600        -2      753            745         8 AA         301 N3ALAA  LGA   
# ℹ 8,720 more rows
# ℹ 6 more variables: dest <chr>, air_time <dbl>, distance <dbl>, hour <dbl>, minute <dbl>, time_hour <dttm>

flights |>
    subset(arr_delay < dep_delay)  # 221565 Zeilen

# A tibble: 221,565 × 19
    year month   day dep_time sched_dep_time dep_delay arr_time sched_arr_time arr_delay carrier flight tailnum origin
   <int> <int> <int>    <int>          <int>     <dbl>    <int>          <int>     <dbl> <chr>    <int> <chr>   <chr> 
 1  2013     1     1      544            545        -1     1004           1022       -18 B6         725 N804JB  JFK   
 2  2013     1     1      554            600        -6      812            837       -25 DL         461 N668DN  LGA   
 3  2013     1     1      557            600        -3      709            723       -14 EV        5708 N829AS  LGA   
 4  2013     1     1      557            600        -3      838            846        -8 B6          79 N593JB  JFK   
 5  2013     1     1      558            600        -2      853            856        -3 B6          71 N657JB  JFK   
 6  2013     1     1      558            600        -2      923            937       -14 UA        1124 N53441  EWR   
 7  2013     1     1      559            559         0      702            706        -4 B6        1806 N708JB  JFK   
 8  2013     1     1      559            600        -1      854            902        -8 UA        1187 N76515  EWR   
 9  2013     1     1      600            600         0      851            858        -7 B6         371 N595JB  LGA   
10  2013     1     1      601            600         1      844            850        -6 B6         343 N644JB  EWR   
# ℹ 221,555 more rows
# ℹ 6 more variables: dest <chr>, air_time <dbl>, distance <dbl>, hour <dbl>, minute <dbl>, time_hour <dttm>
…
