7 – Datenaufbereitung – Statistische Datenanalyse mit R
…
Data Wrangling

Kombinieren wir nun alles, was wir in diesem Kapitel gelernt haben (nämlich subset(), transform() und |>), dann erhalten wir ein Werkzeug, welches das Umformen eines Data Frames (das sogenannte Data Wrangling) sehr intuitiv ermöglicht. Sehen wir uns das anhand des airquality-Datensatzes an.

Nehmen wir an, wir möchten die Temperaturen (in °C) im Monat Juli untersuchen. Folgende Pipeline könnten wir dazu verwenden:

library(tibble)

airquality |>
    transform(celsius=(Temp - 32) * (5/9)) |>
    subset(Month == 7) |>
    subset(select=-c(Month, Day)) |>
    as_tibble()

# A tibble: 31 × 5
   Ozone Solar.R  Wind  Temp celsius
   <int>   <int> <dbl> <int>   <dbl>
 1   135     269   4.1    84    28.9
 2    49     248   9.2    85    29.4
 3    32     236   9.2    81    27.2
 4    NA     101  10.9    84    28.9
 5    64     175   4.6    83    28.3
 6    40     314  10.9    83    28.3
 7    77     276   5.1    88    31.1
 8    97     267   6.3    92    33.3
 9    97     272   5.7    92    33.3
10    85     175   7.4    89    31.7
# ℹ 21 more rows
…
