12 – Mittelwertvergleich – Statistische Datenanalyse mit R
…
Neben der Betrachtung von Zusammenhängen zwischen Variablen (zum Beispiel mittels Korrelation oder Regression) möchten wir häufig wissen, ob sich zwei (oder mehr) Gruppen in ihren Mittelwerten unterscheiden. In korrelativen Studien (Beobachtungsstudien) erheben wir Daten, ohne etwas zu manipulieren. Experimentelle Studien (Interventionsstudien) manipulieren hingegen gezielt eine oder mehrere Variablen (z.B. eine Gruppe erhält ein Medikament und eine andere ein Placebo). Dadurch können wir Unterschiede im Ergebnis der Manipulation zuschreiben und kausale Schlussfolgerungen ziehen, was bei korrelativen Studien nicht möglich ist.

Innerhalb experimenteller Studien unterscheiden wir zwischen unabhängigen und abhängigen Designs. In einem unabhängigen Design bestehen die Gruppen aus unterschiedlichen Personen, sodass die Beobachtungen zwischen den Gruppen nicht zusammenhängen. In einem abhängigen Design (auch Messwiederholungs-Design genannt) nehmen dieselben Personen an mehreren Bedingungen teil, wodurch eine Abhängigkeit zwischen den Gruppen entsteht. Da jede Person als ihre eigene Kontrollbedingung dient, rechnen abhängige Designs automatisch individuelle Unterschiede heraus, die für die Behandlung irrelevant sind. Dadurch hat die Analyse mehr statistische Power als bei einem unabhängigen Design (d.h. kleinere Unterschiede können besser erkannt werden). Dieser Vorteil wird im folgenden Beispiel deutlich.

Beispiel

In einer fiktiven Studie wurde die Angst vor Spinnen auf einer Skala von 0 bis 100 gemessen (größere Werte stehen für höhere Angst). Es wurden 24 Personen in zwei Gruppen untersucht (also 12 Personen pro Gruppe). Einer Gruppe wurden Fotos von Spinnen gezeigt, der anderen Gruppe wurden echte Spinnen gezeigt.

Wir beginnen mit dem Importieren der Daten aus der Datei spider.dat:

library(readr)
(spider = read_tsv("spider.dat"))

# A tibble: 24 × 2
   Group   Anxiety
   <chr>     <dbl>
 1 picture      30
 2 picture      35
 3 picture      45
 4 picture      40
 5 picture      50
 6 picture      35
 7 picture      55
 8 picture      25
 9 picture      30
10 picture      45
# ℹ 14 more rows
…
