9 – Korrelation – Statistische Datenanalyse mit R
…
Die Funktion rcorr() verwendet man wie folgt:

rcorr(x, y, type="pearson")

Wie bei den anderen Funktionen sind x und y Vektoren. Weiters ist es wie bei cor() möglich, nur das Argument x anzugeben, wenn dieses eine Matrix mit mindestens zwei Spalten ist.

Beispiel

Am besten können die drei Funktionen anhand eines Beispiels veranschaulicht werden. Dazu laden wir einen (fiktiven) Datensatz exam.dat über Prüfungsangst:

library(readr)
(exam = read_tsv("exam.dat"))

# A tibble: 103 × 5
    Code Revise  Exam Anxiety Gender
   <dbl>  <dbl> <dbl>   <dbl> <chr> 
 1     1      4    40    86.3 Male  
 2     2     11    65    88.7 Female
 3     3     27    80    70.2 Male  
 4     4     53    80    61.3 Male  
 5     5      4    40    89.5 Male  
 6     6     22    70    60.5 Female
 7     7     16    20    81.5 Female
 8     8     21    55    75.8 Female
 9     9     25    50    69.4 Female
10    10     18    40    82.3 Female
# ℹ 93 more rows
…
