Lösungen – Statistische Datenanalyse mit R
…
# a.
unique(df[["Schadstoff"]])  # 8 verschiedene Schadstoffe

[1] "THG" "CO2" "CH4" "N2O" "HFC" "PFC" "SF6" "NF3"

# b.
length(unique(df[["CRF_Code"]]))  # 83 verschiedene Codes

[1] 83

# c.
df = df[df[["CRF_Code"]] == "0" & df[["Schadstoff"]] == "CO2",]
df

# A tibble: 33 × 9
   Region Schadstoff Einheit CRF_Code CRF_Sektor             Quelle               Datenstand  Jahr     Werte
   <chr>  <chr>      <chr>   <chr>    <chr>                  <chr>                     <dbl> <dbl>     <dbl>
 1 AT     CO2        t CO2   0        Total (without LULUCF) OLI 2023 (1990-2022)   15012024  1990 62183904.
 2 AT     CO2        t CO2   0        Total (without LULUCF) OLI 2023 (1990-2022)   15012024  1991 65782394.
 3 AT     CO2        t CO2   0        Total (without LULUCF) OLI 2023 (1990-2022)   15012024  1992 60282904.
 4 AT     CO2        t CO2   0        Total (without LULUCF) OLI 2023 (1990-2022)   15012024  1993 60708862.
 5 AT     CO2        t CO2   0        Total (without LULUCF) OLI 2023 (1990-2022)   15012024  1994 61083354.
 6 AT     CO2        t CO2   0        Total (without LULUCF) OLI 2023 (1990-2022)   15012024  1995 64060755.
 7 AT     CO2        t CO2   0        Total (without LULUCF) OLI 2023 (1990-2022)   15012024  1996 67405241.
 8 AT     CO2        t CO2   0        Total (without LULUCF) OLI 2023 (1990-2022)   15012024  1997 67301823.
 9 AT     CO2        t CO2   0        Total (without LULUCF) OLI 2023 (1990-2022)   15012024  1998 66936726.
10 AT     CO2        t CO2   0        Total (without LULUCF) OLI 2023 (1990-2022)   15012024  1999 65667804.
# ℹ 23 more rows
…
length(x[x > mean(x)])

[1] 49

Übung 38

df = read_tsv("imdb-ratings.tsv.zip")

m_g = mean(df$averageRating)
m = quantile(df$numVotes, 0.9)
df$weightedRating = (df$averageRating * df$numVotes + m_g * m) / (df$numVotes + m)

df[order(-df$weightedRating), ]

# A tibble: 1,628,304 × 4
   tconst     averageRating numVotes weightedRating
   <chr>              <dbl>    <dbl>          <dbl>
 1 tt2301451           10     282095           9.99
 2 tt4283088            9.9   251299           9.89
 3 tt4283094            9.9   181028           9.89
 4 tt2301455            9.9   179032           9.89
 5 tt2178784            9.9   139417           9.89
 6 tt1683088            9.9    97718           9.89
 7 tt12187040           9.9    73261           9.88
 8 tt38504411           9.9    63904           9.88
 9 tt8084176            9.9    42499           9.87
10 tt38504412           9.9    39322           9.86
# ℹ 1,628,294 more rows
…
