10 – Lineare Regression (1) – Statistische Datenanalyse mit R
…
Die \(t\)-Statistik vergleicht das Modell mit seinem Fehler; konkret möchte man hier wissen, ob der beobachtete Wert des Regressionskoeffizienten groß gegenüber seinem Standardfehler ist:

\[t = \frac{b}{\mathrm{SE}_b}\]

Die Freiheitsgrade dieser t-Statistik sind \(N-p\), also im Fall der einfachen linearen Regression \(N-2\).

Beispiel

Wie man eine Regressionsanalyse in R durchführt lässt sich am besten anhand eines Beispiels zeigen. Importieren wir dazu einen Datensatz sales1.dat, welcher Daten über Musikalbenverkäufe (Spalte sales) und die Höhe des Werbebudgets (Spalte adverts) enthält:

library(readr)
(album = read_tsv("sales1.dat"))

# A tibble: 200 × 2
   adverts sales
     <dbl> <dbl>
 1    10.3   330
 2   986.    120
 3  1446.    360
 4  1188.    270
 5   575.    220
 6   569.    170
 7   472.     70
 8   537.    210
 9   514.    200
10   174.    300
# ℹ 190 more rows
…
